[
	{
		"pk": "Esport",
		"model": "gamebuddy.place",
		"fields": {
			"description": "Esports is the Nordic region's largest indoor sports facility, which is known for its variety of services for over 30 years.Esport Center, more than 20 000 square meters of facilities can be found in the unique racquet sports and fitness world. Esport Center offers over 50 sports and multi-purpose fields.Esport Fitness offers a wide and varied range of fitness facilities, as at Espoo, Finland (2500m ²) and at Helsinki (2000m ²). Esport Fitness Helsinki was founded in 2003. Helsinki's city center has 2,000 square meters of open space, fabulous views and a variety of sports. Esport ratiopharm arena was completed in Esport Center in the side in 2005. Arena is a world-class multi-purpose hall , which can be found in 800 m running track, a big gym ( Fitness Arena) , a group of sports facilities , martial arts center, floor ball courts, a full- size football field  the Academy of field and a multipurpose field for floor ball , indoor football or basketball. Arena also hosts a large number of small and larger events and tournaments. In addition, the Arena has a very popular children's sports park Esport HopLop , Hesburger fast food restaurant and cafeteria and a private restaurant . We also offer summer camps, after-school activities and group activity for children.",
			"user_created": false
		}
	},
	{
		"pk": "Freedom Fund Areana",
		"model": "gamebuddy.place",
		"fields": {
			"description": "The arena is near the borders of Kauniainen with excellent transport connections. We have three tennis courts, 5 badminton/ping-pong- and 2 squash courts, as well as professional training in all disciplines. The smoke sauna facilities and a café with a fireplace makes the atmosphere reach its top.",
			"user_created": false
		}
	},
	{
		"pk": "Talihallli",
		"model": "gamebuddy.place",
		"fields": {
			"description": "Welcome to Talihalli! Come play badminton, squash or racquetball in the comfortable environment. We are a sports clubs that offer high-quality mentoring and coaching people of different ages. Additional information about the clubs' can be found at their own websites. Booking online system allows you book fields easily. We will post our events and news on our Facebook company page.",
			"user_created": false
		}
	},
	{
		"pk": "Puistola sports hall",
		"model": "gamebuddy.place",
		"fields": {
			"description": "The fine Puistola sports hall provides the perfect game fields for tennis and badminton. Badminton Hall can also be used for other types of indoor sports (futsal, badminton, ultimate ...). Squash and racket ball can be played at Tapanila Sports Centre which is owned by the us as well. There is also a golf simulator. The sauna facilities are excellent on the second floor. During the summer, the hall also has outdoor tennis courts, which are covered in the winter. Puistola sports hall is an important part of Tapanila Sports House Foundation, which also includes Tapanila Sports Climbing Centre and Helsinki.",
			"user_created": false
		}
	},
	{
		"pk": "Meilahti Sports Centre",
		"model": "gamebuddy.place",
		"fields": {
			"description": "Meilahden Sports Centre was constructed  in September 2008 and it is located in Meilahti sports park. The center has three tennis courts, five badminton courts, as well as floorball, volleyball, handball and indoor football suitable for ball games. In addition, the sports center has a huge 400 square meter fitness center, indoor cycling facility, and a sports hall music, so it provides excellent opportunities for the whole family to exercise. Meilahti sports centre has a park with plenty of area for activities including, three basketball courts, baseball field, frisbee course and jogging trail. In winter, the park has facilities for tennis in three covered high pressure tents. In addition, basketball courts and a baseball field that is frozen in the winter for ice hockey.",
			"user_created": false
		}
	},
	{
		"pk": "Turku Sports park",
		"model": "gamebuddy.place",
		"fields": {
			"description": "Turku Sports Park is the center of Turku, Aura River located on the eastern shore of  the sports park and a recreation area. A large park area includes a wide range of sports facilities, some of which are open year-round. Park's most significant entities are the Paavo Nurmi Stadium, which acts both as a football, the football field. The park also has a large golf field, outdoor fitness equipment, as well as several tennis courts, basketball and volleyball courts. In winter, the park fields will be frozen for winter sports on ice. Around the park, There is a running-jogging track, which takes its name Paavo Karisto, which was Finland's first social sports instructor from 1938 to 1969.",
			"user_created": false
		}
	},
	{
		"pk": "Mikkeli Sports Centre",
		"model": "gamebuddy.place",
		"fields": {
			"description": "Welcome to Mikkeli's Sports Centre! We have a track and field venues fully equipped, grass-/football fields (74 mx 108 m), changing rooms with showers, a sauna, voice room and results service and kiosk facilities. The park also has 2 tennis courts, which can be applied constant shifts and competition provisions. Weekly changing reservation list can go making your own reservations. This can also be done online, which is preferred. There is also a climbing wall, a trampoline, a balance on track and football area, which can be used freely without reservation. In winter, you can ski around the 1.3 km-long track.",
			"user_created": false
		}
	}
]
